{
  "verified_claims": {
    "verification": {
      "trust_framework": "de_aml",
      "time": "2012-04-23T18:25Z",
      "verification_process": "513645-e44b-4951-942c-7091cf7d891d",
      "evidence": [
        {
          "type": "document",
          "check_details": [
            {
              "check_method": "pvp"
            },
            {
              "check_method": "vpip"
            }
          ],
          "time": "2012-04-22T11:30Z",
          "document_details": {
            "type": "de_erp_replacement_idcard",
            "issuer": {
              "name": "Stadt Augsburg",
              "country": "DE"
            },
            "document_number": "53554554",
            "date_of_issuance": "2010-04-23",
            "date_of_expiry": "2020-04-22"
          }
        },
        {
          "type": "document",
          "validation_method": {
            "type": "vpip"
          },
          "time": "2012-04-22T11:30Z",
          "document_details": {
            "type": "utility_statement",
            "issuer": {
                "name": "Stadtwerke Musterstadt",
                "country": "DE",
                "region": "Niedersachsen",
                "street_address": "Energiestrasse 33"
            },
            "date_of_issuance": "2013-01-31"
          }
        }
      ]
    },
    "claims": {
      "given_name": "Max",
      "family_name": "Meier",
      "birthdate": "1956-01-28",
      "place_of_birth": {
        "country": "DE",
        "locality": "Musterstadt"
      },
      "nationalities": [
        "DE"
      ],
      "address": {
        "locality": "Maxstadt",
        "postal_code": "12344",
        "country": "DE",
        "street_address": "An der Weide 22"
      }
    }
  }
}
