{
  "iss": "https://server.example.com",
  "sub": "24400320",
  "aud": "s6BhdRkqt3",
  "nonce": "n-0S6_WzA2Mj",
  "exp": 1311281970,
  "iat": 1311280970,
  "auth_time": 1311280969,
  "acr": "urn:mace:incommon:iap:silver",
  "email": "janedoe@example.com",
  "preferred_username": "j.doe",
  "picture": "http://example.com/janedoe/me.jpg",
  "verified_claims": {
    "verification": {
      "trust_framework": "de_aml",
      "time": "2012-04-23T18:25Z",
      "verification_process": "f24c6f-6d3f-4ec5-973e-b0d8506f3bc7",
      "evidence": [
        {
          "type": "document",
          "method": "pipp",
          "time": "2012-04-22T11:30Z",
          "document_details": {
            "type": "idcard",
            "issuer": {
              "name": "Stadt Augsburg",
              "country": "DE"
            },
            "document_number": "53554554",
            "date_of_issuance": "2010-03-23",
            "date_of_expiry": "2020-03-22"
          }
        }
      ]
    },
    "claims": {
      "given_name": "Max",
      "family_name": "Meier",
      "birthdate": "1956-01-28"
    }
  }
}
